<svg width="70" height="80" viewBox="0 0 70 80" fill="none" xmlns="http://www.w3.org/2000/svg">
<path d="M0.494542 3.14393L5.60351 68.504C5.68021 69.4855 6.34455 70.3224 7.28305 70.62L34.1666 79.1433C34.642 79.294 35.1524 79.294 35.6278 79.1433L62.5113 70.62C63.4498 70.3224 64.1142 69.4855 64.1908 68.504L69.2998 3.14393C69.4097 1.73873 68.2991 0.538044 66.8898 0.538044H2.90479C1.49541 0.538044 0.384846 1.73873 0.494542 3.14393ZM56.1982 23.423H22.9021L23.9069 32.6892H55.474L53.409 59.1058L34.8973 64.9748L16.3855 59.1058L15.3067 45.3047H25.0231V52.0743L35.1569 54.7941L45.2302 52.0743L46.0116 41.2854H14.9925L12.9331 14.9381H56.8613L56.1982 23.423Z" fill="#FC490B"/>
</svg>
